{
  "server": "http://10.1.10.107:9091",
  "epgFilePath": "http://10.1.10.107:9091/epg/",
  "baseSlug": "/partners-spaulding/general/",
  "originalUrl": true,  
  "desktopDeviceId": "0021F8034F72",
  "welcomeVideo": "razuna-vid-C0DD36E65A7141BD966801DE0011C743",
  "startChannel": {
    "mode": "logicalnumber",
    "rfType": "Cable",
    "logicalNumber": 999
  },
  "lineups": {
    "tv": 1
  },
  "analyticsSite": "UA-43547321-1"
}
